C0001C,"Abacate, polpa, in natura",75,312,86.3,5.84,1.81,1.15,6.21,4.03,0.00,0.47,0.00,1.70,3.18,1.04,0.00,7.16,0.17,0,17.0,18.5,174,0.23,0.12,0.20,6.21,3.11,0.00,0.02,0,0.04,0,0,0.00,7.32,41.5,0.00,0.00
C0195C,"Abacaxi, cozido, caramelado",136,578,65.5,33.3,32.5,0.60,0.26,0.84,0.00,0.39,0.00,0.02,0.02,0.08,0.00,24.6,0.90,5.24,19.3,11.1,137,0.16,0.10,0.30,0.00,0.00,0.00,0.04,0.10,0.02,0,0,0.00,17.4,4.23,0.00,25.0
C0054C,"Abacaxi, polpa, congelada",33,141,91.3,7.80,7.47,0.47,0.11,0.33,0.00,0.33,0.00,0.01,0.01,0.04,0.00,13.5,0.36,1.24,10.1,7.63,106,0.06,0.04,0.06,2.26,1.13,0.00,0.02,0.05,0,0,0,0.00,1.25,11.2,0.00,0.00
C0264C,"Abacaxi, polpa, desidratada",279,1115,27.5,64.9,58.6,3.80,1.86,6.24,0.00,1.99,0.00,0.13,0.18,0.57,0.00,102,2.64,15.9,92.8,58.7,767,0.86,0.69,2.26,11.2,5.58,0.00,0.26,0.92,0.11,0,0,0.00,184,63.1,0.00,0.00
C0218C,"Abacaxi, polpa, grelhado, c/ canela",50,215,86.6,12.0,10.6,0.70,0.34,1.38,0.00,0.37,0.00,0.02,0.03,0.10,0.00,22.4,0.51,2.88,16.8,10.8,125,0.16,0.11,0.42,1.69,0.92,0.00,0.06,0.13,0.02,0.01,0.00,0.00,33.0,6.77,0.00,0.00
C0002C,"Abacaxi, polpa, in natura",49,211,87.0,11.6,10.5,0.68,0.33,1.12,0.00,0.36,0.00,0.02,0.03,0.10,0.00,18.4,0.47,2.84,16.6,10.5,137,0.15,0.12,0.41,2.00,1.00,0.00,0.05,0.17,0.02,0,0,0.00,33.1,11.3,0.00,0.00
C0069C,"Abiu, in natura",65,278,83.1,14.9,13.2,0.83,0.70,1.70,0.00,0.39,0.00,0.30,0.10,0.10,0.00,5.78,0.16,0,9.30,20.3,128,0.10,0.09,0,0,0,0.00,0,0,0.04,0,0.05,0.00,10.3,0,0.00,0.00
C0680B,"Abóbora, cabotian (japonesa), c/ quiabo, refogado (c/ óleo, cebola e alho), c/ salsa, c/ sal",47,200,87.6,8.22,5.43,1.51,1.61,2.79,0.00,1.08,0.00,0.25,0.38,0.83,0.01,45.9,0.37,188,15.8,37.2,170,0.34,0.10,0.68,313,156,0.00,4.08,0.06,0.00,0.02,0.06,0.00,5.97,27.5,0.47,0.00
C0059B,"Abóbora, cabotian (japonesa), s/ casca, cozida, drenada, s/ óleo, s/ sal",50,212,86.4,10.8,8.30,1.44,0.73,2.46,0.00,0.71,0.00,0.10,0.20,0.20,0.00,7.63,0.35,1.45,9.11,32.6,199,0.29,0.06,1.17,617,308,0.00,8.34,0.08,0,0,0.07,0.00,7.46,8.94,0.00,0.00
C0002B,"Abóbora, cabotian (japonesa), s/ casca, s/sementes, crua",40,172,88.5,8.36,6.19,1.75,0.54,2.17,0.00,0.84,0.00,0.12,0.08,0.05,0.00,18.0,0.37,0,8.82,25.8,350,0.32,0.06,1.10,508,254,0.00,5.72,0,0,0,0.10,0.00,5.09,21.9,0.00,0.00
C0003B,"Abóbora, menina brasileira, s/ casca, s/ sementes, crua",13,56,95.7,3.34,2.17,0.61,0,1.17,0.00,0.36,0.00,0,0,0,0.00,8.74,0.15,0,4.09,11.6,164,0,0.02,1.10,1335,667,0.00,0.04,0.07,0,0,0.04,0.00,1.50,8.21,0.00,0.00
C0151B,"Abóbora, moranga, refogada (c/ óleo, cebola e alho), c/ sal",29,124,92.5,5.98,4.44,0.39,0.80,1.55,0.00,0.37,0.00,0.12,0.19,0.45,0.00,19.2,0.11,130,7.50,11.7,183,0.08,0.04,1.07,95.3,47.7,0.00,1.51,0.05,0,0,0.05,0,6.73,8.45,0.32,0.00
C0101B,"Abóbora, moranga, refogada (c/ óleo, cebola e alho), s/ sal",29,124,92.5,5.98,4.44,0.39,0.80,1.55,0.00,0.37,0.00,0.12,0.19,0.45,0.00,19.1,0.11,3.03,7.49,11.7,183,0.08,0.04,1.07,95.3,47.7,0.00,1.51,0.05,0,0,0.05,0.00,6.73,8.45,0.00,0.00
C0270B,"Abóbora, moranga, s/ casca, cozida, c/ molho de tomate (tomate, c/ óleo, cebola e alho), c/ salsa, c/ pimenta-do-reino, c/ sal",31,131,91.2,4.78,2.28,1.38,1.33,2.50,0.00,1.27,0.00,0.21,0.29,0.73,0.00,8.88,0.18,280,5.28,15.6,133,0.12,0.07,0.91,296,148,0.00,1.40,0.03,0.01,0.01,0.06,0.00,10.3,9.60,0.00,0.00
C0269B,"Abóbora, moranga, s/ casca, cozida, c/ molho de tomate (tomate, c/ óleo, cebola e alho), c/ salsa, c/ pimenta-do-reino, s/ sal",32,135,91.4,5.00,2.42,1.42,1.34,2.58,0.00,0.82,0.00,0.22,0.30,0.73,0.00,10.5,0.21,93.1,5.83,16.2,134,0.13,0.08,0.92,297,148,0.00,1.41,0.03,0.01,0.02,0.06,0.00,10.3,9.85,0.47,0.00
